Հայւց,Latin,gloss,definition,valency,etymology
,anidmer,cause/make,,,
,asidmer,hang,,TR,Tu/Tm asmak
,baster/bar,have/exist,,INTR,بارFa 
բահեմեկ,bahemider,to be together,,,Fa  باهم (baham)
,kankanider,adventure,,INTR,
,maelidmer,should/must,,,"Fa باید, Hy, պէտ"
,bakider,to look around,,INTR,Tu bakmak
,bang-kherder,shout,,INTR,Fa بانگ کردن
,bendegider,serve,,,
,bexidmer,to scratch,,INTR,r/conlangs
"բեստեն, բենդ",bestmer/bend,tie/close/conclude/enter into/agree to,,TR,Fa بستن/بند (bastan)
"բերստեդեն, բերստան",bersteder/berstan,accept/receive/take up,,TR,
"բեռսիդեն, բառշ",berrsider/barrş,to happen/arrive at/end up at,,TR,Fa bar-rasīdan
,kanidkherder,succeed/ make happened,,,
,berafroxter/berafrux,light up/kindle/overheat/ignite,,,Fa bar-afroḵẖtan بر افروختن
,bere-cuşider,evaporate/dissipate,,,up+boil
"բերվառեստեն, բերվառին",bervarrester/bervarrin,exalt/understand,,TR,
"բերխեստեն,բերխիս",berxester/barz,raise up/revolve/revolt/turn/reverse,,TR,Fa barxastan
,buşider,drink,,,Fa نوشیدن
,bolanidmer,drive/ride/steer,,,go+CAUS
,bordmer/byr,carry/bear,,TR,Fa بردن، برـ
,bumorehnider,to rebound,,INTR,En boomerang
,žehnae-kherder,to move out,,INTR,avaiable_room-do
,žin-kiorider,to change gender,,INTR,
բիւդեն/եստ,bider/est,be,,INTR,Fa budan
,boekider,jump,,INTR,Tm bökmek
,boekekider,to trip,,INTR,jump+GER.INV
,boekekanidmer,to trip (someone),,TR,jump+GER.INV+CAUS
,borider,cut,,TR,Fa borīdan
,eçoenaeder/eçoene,,1. to celebrate 2. to congregate 3. to come together,INTR,r/conlangs
,eçoenehhanider,,1. to cause to celebrate 2. to bring together,TR,celebrate+CAUS
,esipýyder/esipýo,to be self-aware,,INTR,r/conlangs
"եստեդեն, եստան",estedmer/estan,take/stand,,INTR,Fa ایستادن estadan/ stān
,yglaeder/ygle,run,,INTR,Tm ylgamak
,gozidmer,to bite,,TR,Fa گزیدن
,gorydmer,choose/select,,TR,Fa گزیدن; Ko 고르다
,goilidmer,house/host/accomodate,,TR,to house
,goilkider,to be happy,,INTR,Lo gleki
,goivopidmer,give up/abandon,,TR,En give up
գւերմեկ,goeridmer,try/attempt/observe/c,,Fa جگوار,atch sight of,,TR,Tm görmek
,goerkezidmer,show/point,,TR,Tm görkezmek
,gupider,bend/twist,,INTR, Ko 굽다
,gupanider,make bend/twist,,TR, bend+CAUS Ko 굽히다
,dadmer/dehn,give,,TR,Fa دادن/ده 
,dunestmer/dun,know (something),,,Fa دانستن
,densider,dance,,INTR,"Tu, Ku dans, Ko 댄스"
,thaştmer/thar,have/get,,TR,Fa dāštan/dār
,thavaexter/thavex,,1. to plan for contingencies 2. to brainstorm,INTR,r/conlangs
,derdanidmer,to make worry,,TR,"Tu dert, Az dərd, Fa درد, Hy դարդ, Ku derd"
,deronder/deryn,to be different/divergent,,INTR,Ko 다르다 (det 다른)
,derrderdidmer,to terrify,,TR,worry.worry
,dylider,listen,,INTR,Ko 들리다 
,dyrmaşidmer,climb,,TR,Tm dyrmaşmak
,dofonxaedmer/dofonxe,to forget,,TR,r/conlangs
,doişider,fall/collapse/come down,,,Tu düşmek
,dioşionidmer,think/understand,,TR,Tu düşünmek
,dioşion-anidmer,teach,,TR,understand-CAUS
,duqidmer,deceive/mislead,,TR,Fa دروغ
,doestmer/dus,like/love/befriend (person),,TR,Fa دوست داشتن
,zarider,weep/lament,,INTR,Fa زاریدن
,zarizarider,to constantly complain,,INTR,Ma zārizāri
,zendegider,live,,INTR,Fa زندگی کردن
,zikretidmer,remember,,TR,Az zikr etmək
,zoithunanidmer,to direct flow,,TR,flow+CAUS
,zoithunider,to flow/disperse/disseminate,,INTR,waterway+be
,iol-naedaşter,to be lost,,INTR,way-NEG.have
,ionaeder/ione,play,,TR,Tm oýnamak
,didmer/din,see,,TR,Fa  دیدن/ بین
,dilkoiranidmer,to translate,,TR,tongue+turn+CAUS
,thidahnidmer,show,,,
,thoigider,fry,,INTR, Ko 튀기다
,fio-kaster,visit,,TR,
,xandyder,laugh,,INTR,Fa xandidan/xand
,xeridmer,buy,,TR,Fa  خریدن
,xoebider,sleep,,,Fa خواب
,xoeheder/xoeha,sweat,,,"Ku xwêdan, Ko 땀흘리다"
,xoester/xaz,want/desire/demand,,INTR,"Ku xwesten/xwaz, Fa خواستن /خواه‎ "
,xoender/xan,read/sing/blow,,TR,"Ku xwendin, Fa خواندن"
,xoelchaenider,,1. to totalize/hegemonize 2. to be omnicidal,INTR,ash+goo+be
,kanxanider,play around/experiment,,INTR,
,xester/xiz,rise/stand,,INTR,
,xizanidmer,raise,,TR,
,xizgoeridmer,to interest,,TR,rise + try Ko 興味
,xoşkider,to become dry,,INTR,Fa خشک
,xorder/xur,eat,,TR,Fa xordan
,jakoindanidmer,to tire/exhaust/use up,,TR,exhaustion+CAUS
,jibarider,wait,,INTR,Fa صبر Ko 기다리다
,jylcidmer,to enjoy,,TR,Ko 즐기다
,jotyder,row/stir,,INTR,Ko 젓다
,josboridmer,,1. atomize 2. understand 3. break down,particle+cut
,jjotexoikesanidmer,,1. to incapacitate 2. to catch (someone) off-guard 3. (military/strategy gaming) to halt an advance,TR,vulnerable+CAUS
,jjoimaedmer,,1. to finish/complete 2. to arrive (at something) 3. to succeed (at something),TR,r/conlangs
,kaşkaedmer/kaşke,,1. to spit out 2. to reject,TR,r/conlangs
կանդեն,kanider/kan,happen/arrive/come,,TR,
,koirider,turn/reverse,,,
,koiranider,to make turn,,,
,koirkoirider,to go back & forth/be unstable/in flux,,,
,koiltrasidmer,break/divide/split/sever,,,"separate + stop, Ko 斷絕 (단절)"
,koiltanidmer,divide/separate/remove,,TR,
,koimpyhhanidmer,,1. to make undergo meiosis 2. to halve 3. to distract 4. to be in a relationship with someone whose other partner(s) one dislikes,TR,half+CAUS
,koimpykherder,,1. to undergo meiosis 2. to split (oneself) in half 3. to divide attention between two things 4. to be in a relationship with two partners who don't get along,INTR,half+do
,koeumidmer,to help,,TR,"Ko 돕다, Tu kömek, Fa کمک کردن"
,koeşter/kur,kill,,TR,"Fa کشتن, Ku kûştin"
,kuse-kherder,kiss,,INTR,Fa kusa-kardan
,kolocider,organize/sort,,TR,koloc + ider
,koirxoestmer/koirxaz,regret,,TR,turn+want
,koirkoirsyridmer,recycle/reuse/scavenge,,TR,
,koirphoevaýelýazider,to report the opposite of what seems true,,INTR,turn-INF-headline-write
կովըօանիդմեր,kovyhhanidmer,,1. to puppeteer 2. to play with,TR,r/conlangs
,hetesidmer,injure,1. to injure 2. to cause financial damage 3. to libel,TR,r/conlangs
,hemaster/heman,do the same,,verbal anaphor,Fa همان
,hemamemaster/hemaheman,almost do,,,Ku hema hema
,lohemaster,to do as (the listener) says,,,
,chekyhhanidmer,,1. to make landlocked 2. to blockade,inland+CAUS
,chekybolider, to travel overland,,INTR,,inland+go
,chohnidmer,to ask/request,,TR,Fa پرسیدن; Ko 청하다
ճւինիդեր,choinider,,1. to be irrelevant 2. to not matter,INTR,r/conlangs
ճւինանիդմեր,choinanider,,1. to make forgotten 2. to make obsolete 3. to upstage,irrelevant+CAUS
,qanynşekenider,to break the law,,INTR,rule+break
,qarr-varrester,,to have PIV intercourse,INTR,qar + take
,qyvozider,to come/arrive,,,there.ABL + be
,qoihnider,,1. to go underground 2. to take a subway,INTR,under+DAT+be
,ýaežýesafidmer,,1. to spot clean 2. to detail 3. to fixate on 4. to hyperfocus on,spot+clean
,ýazider,write,,INTR,Tu yazmak
,ýensanidmer,to make morally obligatory,,TR,morally obligatory+CAUS
,ýensider,to be morally obligatory,,INTR,r/conlangs
,žoizider,swim,,INTR,Tm ýüzmek 
,žoeraeder/žoere,walk,,,Tm ýöremek
,uchy-kherder,to do the bare minimum,,INTR,r/conlangs
,ýokider,not exist,,,
,nişinider,sit/reside,,INTR,
,mehaedmer/mehe,,to evade/avoid/avert/bypass (formed by back-analyzing մեհեբիլլը as the abstract potential form of a verb),TR,r/conlangs
mehebilidmer,,to be capable of avoiding,TR,avoid+POT
,mehnbaeder/mehnbe,to go wrong,,INTR,r/conlangs
,mixmysider,nail/peg/stud/penetrate,"To the confusion of visitors, ""to penetrate"" generally means needle play, not intercourse.",TR,Fa میخ زدن
,miýoskidmer,,1. to break/damage/incapacitate 2. to restrain,TR,r/conlangs
մըսմեկ,mysidmer,strike,1. to strike/hit 2. to experience 3. to realize,TR,
,mysmysidmer,to struggle against,,TR,strike+strike
,çaqy-mysydmer,stab,,TR,knife + strike
,molanidmer,to ignite/trigger/set off,,TR,r/conlangs
,molider,,to explode/combust/react,INTR,Back-formed from analysing մոլան as a causative form.
մւեվմեկ,moevider,ponder/suppose,,TR,
moevmysidmer,,1. to realize 2. to discover 3. to have an insight (that),TR,suppose+strike
,naekolocider,to lose,,TR,NEG.organize
,namidmer,to be named/called,,TR,name+be
,namvarrinidmer,to take the name of,,TR,name+take
,nefraedmer/nefre,to hate,,TR, Ar نفرت
,nosoimysidmer,to spread/infect,,TR,copy+strike/touch
,noinaesanidmer,,1. to cause to crack 2. to cause to change gender,TR,hatch+CAUS
,noinester/noinaes,,1. to break open 2. to crack 3. to hatch 4. to molt 5. to change gender 6. to reveal,INTR,r/conlangs
,nurider,shine/light (up),,INTR,light+be
,nuranidmer,,1. polish/make shine 2. refurbish,TR,light+CAUS
,şaevozider,to leave,,INTR,here.ABL + be
,şaevozanider,to leave behind,,TR,
,şenaxtmer/şenas,to know/recognize (a person),,TR,Fa شناختن
,şekestmer/şeken,break,,TR,Fa شکسته/شکن
,şerridmer,fight,,TR,Ku şer
,şoryhhider,start/begin,,INTR,"Fa شروع, Ko 시작하다"
,şoinidmer,hear,TR,Fa شنیدن
,çider/çin,pick/pluck/gather/harvest,,INTR,Fa  چیدن; Ku çinîn
,çejaedmer,to withdraw/refuse/back down,,TR
,paýaedmer/paýe,to look at/watch,,TR,Fa پاییدن
,patleç-morder,,to be declared legally dead and be subjected to the Beheşti estate tax,INTR,
,parvarrider,to take what's expected,,,
,phuşidmer,to cover/dress,,TR,Fa پوشیدن
,polbolider,to migrate/emigrate/naturalize/become conventional,,,
,poxtmer/pez,to cook,,TR,Fa پختن/پز
,pospos-safidmer, to mop,,TR,Tu paspaslamak
,postidmer/pys,,1. to post 2. to write online 3. (archaic) to email,TR,Fa پست
պւլդեն,maelider,to migrate/emigrate/naturalize/become conventional,,TR,
,gazahnder,to make boil,,TR,Fa جوشاندن
ջոշիդեն,cuşider,boil,,INTR,Fa جوشیدن/جوش
,saelaeder/saele,speak/tell/relate,,TR,"Fa صحبت, Az söləmək, Tu sölemek"
,saes-berxester,shout,,INTR,
,saes-koeşter,be quiet,,INTR,sound + kill
,saevidmer,to sift/sieve/strain,,TR,PIE *seybʰ- 
,safidmer,clean,,TR,Tu saf
,saflegoerider,experiment/test,,,
,sekzekulidmer,to rage at,,TR,r/conlangs
,sordmer/syr,use/write,,,Ko 쓰다
սաֆտեն,bilider,know (something)/be able to,,INTR,
,soxankhaeder,summon,,TR,Ko 소환하다
,sooitaedmer/sooite,,1. to make frozen 2. to prepare by freezing 3. to cryopreserve,r/conlangs
,loethuhn-saelaeder,address an audience,,INTR,3p.KH.VOC-speak
,vaýelýazider,to write an article/report the news,,INTR,headline+write
,varrester/varrin,take/capture/kidnap,,TR,Ma varinnen
,vezny-anider,,1. to weigh/measure 2. to attract,INTR,weight+CAUS
,volostmer/volys,to teach/instruct/direct,,TR,r/conlangs
,voixaeder/voixe,to be depressed,,INTR,r/conlangs
,voixehhanidmer,to make depressed,,TR,be_depressed+CAUS
,voitider,,1.to hide 2. to be undercover 3. to be on the down-low,INTR,concealed+(be)
,taxidmer,,1. to control 2. to cut off (flow or current) 3. to regulate/restrict 4. to lead on a leash,TR, r/conlangs
,telidmer,to help,,TR,r/conlangs
,telp-kherder,1. to prepare to leave 2. to pack (an unspecified collection of items),,INTR,baggage+do
,tylider,shake,,TR,Ko 떨리다, Tu sallamak
տոմօոծկոմօոծիդեր,tomhhojjkomhhojjider,to loop/repeat forever,,INTR,r/conlangs
,togqoloýidmer/togqolo,,to host/accomodate/provide for,TR,r/conlangs
,bolider,go/become,,INTR,
տիֆտեն,tiflaeder,become,,INTR,
,roester/ras,stop,,TR,Ku rawestan
,rasrasider,arrest/abort/call off/interrupt,,TR,Tu/Tm durdurmak
,rejjkherder,refuse/rebuke,,TR,"Fa رد کردن, Tu reddetmek"
,rejaviorider,consent to,,TR,"Fa رضا, Tu riza, Tj ризоият"
,resider/roş,end/reach,,TR,Fa rasīdan
,revider,run,,INTR,"Fa دویدن, Ku rev"
,refter/rov,go,,INTR,"Fa رفتن/رو, Tu gitmek, Ko, 가다"
,rovrovider,travel,,INTR,
,rolider,roll,,INTR,Fa رول کردن
,roboder/roby,steal/rob,,TR,
,malider,to make dry,,TR,Ko 말리다
,morder/myr,die/cease,,INTR,"Fa مردن, Ku mirin, Tu ölmek, Ru смерть"
,myranider,kill,,,
,oerenidmer,learn,,TR,Tm öwrenmek
,oiýaedmer,,1. to suck 2. to draw blood (from someone),TR,r/conlangs
ւլժմեկ,ložider,relate/recount/record,,TR,
,phaster/phar,exist,,INTR,
,phahnider,descend/go down,,INTR,foot+dat+(go)
,pherreşider,fly/bounce,,INTR,Fa پرش
,phoemehnbego-kherder,to catastrophize, lit."to make an apparent disaster",INF+go_wrong+thing.AHN+do
,phoefykidmer,admire,,TR, SUBJ + fuck
,jhaejjaedmer/jhaejje,,1. to stab 2. to stitch 3. to attach 4. to jury-rig,r/conlangs
,jhexy-kherder,to perform routine maintenance,,INTR,groundskeeper+do
քերդեն/քւն,khester/khar,do/make,,TR,
,kharkharider,work,,INTR,
,,,,,
,hhatidmer, to throw/shoot,,TR,Tu atmak
,hheteşanidmer,to set fire to,,TR,fire+CAUS
,fykider,fuck/join/tie,,TR,En fuck
,fykypider,complete,,,En fucked up
,fyknefraedmer,to be derided by,,TR,fuck+hate
,foryxtmer/forş,sell,TR,Fa فروختن/فُروش
,filider,do/act,,TR,
ֆիւդեն,viorider,hurry/give/deliver/yield,"used as an auxiliary verb for ""please""",TR,
,fiorviorider,to run errands,,,
ֆւիսաեդմեր,foisaedmer/foise,to filter/purify/refine,,TR,r/conlangs
